RUNNR   1                             run number
NSHOW   10000                         number of showers to generate
PRMPAR  14                            prim. particle (1=gamma, 14=proton, ...)
ESLOPE  -2.                          slope of primary energy spectrum
ERANGE  1.E3  1.E4                    energy range of primary particle (GeV)
THETAP  0.  0.                        range of zenith angle (degree)
PHIP    -180.  180.                   range of azimuth angle (degree)
SEED    1   0   0                     seed for 1. random number sequence
SEED    2   0   0                     seed for 2. random number sequence
OBSLEV  4.5E5                         observation level (in cm) 4.5km
MAGNET  0.01 0.01                     magnetic field centr. Europe
HADFLG  0  0  0  0  0  2              flags hadr.interact.&fragmentation
MUADDI  F                             additional info for muons
MUMULT  T                             muon multiple scattering angle
ELMFLG  F   T                         em. interaction flags (NKG,EGS)
STEPFC  1.0                           mult. scattering step length fact.
RADNKG  200.E2                        outer radius for NKG lat.dens.distr.
DATDIR  /vol/auger6/harm/corsika/corsika-77410/run/
LONGI   T  10.  F  F                  longit.distr. & step size & fit & outfile
MAXPRT  0                             max. number of printed events
FIXHEI  2.5E6  0                    first  interaction  height in cm (25km) &  target 1=nitrogen
DIRECT  ./                            output directory
USER    harmschoorlemmer                           user 
PAROUT T F                            suppress DAT file
DEBUG   F  6  F  1000000              debug flag and log.unit for out
EXIT                                  terminates input
